{
  "id": "lang-tr",
  "title": "Turkish [Core]",
  "description": "Turkish language support for Foundry VTT",
  "version": "12.0",
  "authors": [
    {
      "name": "Erozbey"
    }
  ],
  "languages": [
    {
      "lang": "tr",
      "name": "Turkish (Türkçe)",
      "path": "lang/en.json"
    }
  ],
  "coreTranslation": true,
  "url": "https://gitlab.com/maceracilarloncasi/foundryturkce",
  "manifest": "https://gitlab.com/maceracilarloncasi/foundryturkce/-/raw/master/module.json",
  "readme": "https://gitlab.com/maceracilarloncasi/foundryturkce/-/raw/master/README.md",
  "compatibility": {
    "minimum": "12",
    "verified": "12",
    "maximum": "12"
  }
}
